Metric Mean Variance
Accuracy 0.9976975 0.0000023
Precision 0.9979787 0.0000038
Recall 0.9992624 0.0000017
F1 0.9986184 0.0000008
FRR 0.0007376 0.0000017
FAR 0.0100756 0.0000939
HTER 0.0054066 0.0000212
