 SVC  RF  LR
Metric Mean Variance Mean Variance Mean Variance
Accuracy 0.9991828 0.0000157 0.9965729 0.0000773 0.9991501 0.0000131
Precision 0.9995674 0.0000036 0.9962729 0.0000891 0.9994777 0.0000037
Recall 0.9994620 0.0000085 0.9997634 0.0000009 0.9995139 0.0000064
F1 0.9995142 0.0000056 0.9979949 0.0000261 0.9994953 0.0000046
FRR 0.0005380 0.0000085 0.0002366 0.0000009 0.0004861 0.0000064
FAR 0.0023189 0.0001023 0.0205914 0.0027942 0.0028071 0.0001055
HTER 0.0014285 0.0000412 0.0104140 0.0007138 0.0016466 0.0000392

